%!PS-Adobe-3.0
%%Creator: PCBNEW
%%CreationDate: Sat Oct  7 17:03:50 2023
%%Title: ()
%%Pages: 1
%%PageOrder: Ascend
%%BoundingBox: 0 0 596 842
%%DocumentMedia: A4 595 842 0 () ()
%%Orientation: Landscape
%%EndComments
%%BeginProlog
/line { newpath moveto lineto stroke } bind def
/cir0 { newpath 0 360 arc stroke } bind def
/cir1 { newpath 0 360 arc gsave fill grestore stroke } bind def
/cir2 { newpath 0 360 arc gsave fill grestore stroke } bind def
/arc0 { newpath arc stroke } bind def
/arc1 { newpath 4 index 4 index moveto arc closepath gsave fill
    grestore stroke } bind def
/arc2 { newpath 4 index 4 index moveto arc closepath gsave fill
    grestore stroke } bind def
/poly0 { stroke } bind def
/poly1 { closepath gsave fill grestore stroke } bind def
/poly2 { closepath gsave fill grestore stroke } bind def
/rect0 { rectstroke } bind def
/rect1 { rectfill } bind def
/rect2 { rectfill } bind def
/linemode0 { 0 setlinecap 0 setlinejoin 0 setlinewidth } bind def
/linemode1 { 1 setlinecap 1 setlinejoin } bind def
/dashedline { [200] 100 setdash } bind def
/solidline { [] 0 setdash } bind def
/phantomshow { moveto
    /KicadFont findfont 0.000001 scalefont setfont
    show } bind def
/textshow { gsave
    findfont exch scalefont setfont concat 1 scale 0 0 moveto show
    } bind def
/reencodefont {
  findfont dup length dict begin
  { 1 index /FID ne
    { def }
    { pop pop } ifelse
  } forall
  /Encoding ISOLatin1Encoding def
  currentdict
  end } bind def
/KicadFont /Helvetica reencodefont definefont pop
/KicadFont-Bold /Helvetica-Bold reencodefont definefont pop
/KicadFont-Oblique /Helvetica-Oblique reencodefont definefont pop
/KicadFont-BoldOblique /Helvetica-BoldOblique reencodefont definefont pop
%%EndProlog
%%Page: 1 1
%%BeginPageSetup
gsave
0.0072 0.0072 scale
linemode1
82680 0 translate 90 rotate
8.34646 setlinewidth
%%EndPageSetup
0 0 0 setrgbcolor
0 0 0 setrgbcolor
39.3701 setlinewidth
newpath
58326.8 41262.7 moveto
38976.4 41262.7 lineto
38976.4 48034.3 lineto
32677.2 48034.3 lineto
32677.2 41262.7 lineto
14311 41262.7 lineto
14311 68260.7 lineto
58326.8 68260.7 lineto
58326.8 41262.7 lineto
poly0
0 0 0 setrgbcolor
newpath
49281.5 48659.3 moveto
49281.5 50627.8 lineto
stroke
0 0 0 setrgbcolor
47903.5 48659.3 1377.95 -180 -0 arc0
0 0 0 setrgbcolor
47903.5 50627.8 1377.95 -0 180 arc0
0 0 0 setrgbcolor
newpath
46525.6 48659.3 moveto
46525.6 50627.8 lineto
stroke
0 0 0 setrgbcolor
newpath
46525.6 58895.6 moveto
46525.6 60864.1 lineto
stroke
0 0 0 setrgbcolor
47903.5 60864.1 1377.95 -0 180 arc0
0 0 0 setrgbcolor
newpath
49281.5 58895.6 moveto
49281.5 60864.1 lineto
stroke
0 0 0 setrgbcolor
47903.5 58895.6 1377.95 -180 -0 arc0
0 0 0 setrgbcolor
newpath
23356.3 48659.3 moveto
23356.3 50627.8 lineto
stroke
0 0 0 setrgbcolor
24734.3 50627.8 1377.95 -0 180 arc0
0 0 0 setrgbcolor
newpath
26112.2 48659.3 moveto
26112.2 50627.8 lineto
stroke
0 0 0 setrgbcolor
24734.3 48659.3 1377.95 -180 -0 arc0
0 0 0 setrgbcolor
24734.3 58895.6 1377.95 -180 -0 arc0
0 0 0 setrgbcolor
newpath
26112.2 58895.6 moveto
26112.2 60864.1 lineto
stroke
0 0 0 setrgbcolor
newpath
23356.3 58895.6 moveto
23356.3 60864.1 lineto
stroke
0 0 0 setrgbcolor
24734.3 60864.1 1377.95 -0 180 arc0
showpage
grestore
%%EOF
